Homework/3/dump.vcd
$date
	Fri May 02 19:17:16 2025
$end
$version
	ModelSim Version 10.1d
$end
$timescale
	1ns
$end
$scope module test_bench $end
$var reg 4 ! A [3:0] $end
$var reg 4 " B [3:0] $end
$var reg 1 # Cin $end
$var wire 1 $ Sum [3] $end
$var wire 1 % Sum [2] $end
$var wire 1 & Sum [1] $end
$var wire 1 ' Sum [0] $end
$var wire 1 ( Cout $end
$var reg 5 ) expected_result [4:0] $end
$var integer 32 * total_tests $end
$var integer 32 + successful_tests $end
$var real 0 , max_delay $end
$var real 0 - start_time $end
$var real 0 . end_time $end
$scope task check_result $end
$var reg 4 / a_val [3:0] $end
$var reg 4 0 b_val [3:0] $end
$var reg 1 1 cin_val $end
$var reg 5 2 local_expected [4:0] $end
$var real 0 3 local_start $end
$var real 0 4 local_end $end
$upscope $end
$scope module uut $end
$var wire 1 5 cin $end
$var wire 1 6 a [3] $end
$var wire 1 7 a [2] $end
$var wire 1 8 a [1] $end
$var wire 1 9 a [0] $end
$var wire 1 : b [3] $end
$var wire 1 ; b [2] $end
$var wire 1 < b [1] $end
$var wire 1 = b [0] $end
$var wire 1 ( cout $end
$var wire 1 $ s [3] $end
$var wire 1 % s [2] $end
$var wire 1 & s [1] $end
$var wire 1 ' s [0] $end
$var wire 1 > carry [2] $end
$var wire 1 ? carry [1] $end
$var wire 1 @ carry [0] $end
$scope module FA0 $end
$var wire 1 9 A $end
$var wire 1 = B $end
$var wire 1 5 Cin $end
$var wire 1 ' S $end
$var wire 1 @ Cout $end
$var wire 1 A sum1 $end
$var wire 1 B carry1 $end
$var wire 1 C carry2 $end
$scope module HA1 $end
$var wire 1 9 A $end
$var wire 1 = B $end
$var wire 1 A Sum $end
$var wire 1 B Carry $end
$upscope $end
$scope module HA2 $end
$var wire 1 A A $end
$var wire 1 5 B $end
$var wire 1 ' Sum $end
$var wire 1 C Carry $end
$upscope $end
$upscope $end
$scope module FA1 $end
$var wire 1 8 A $end
$var wire 1 < B $end
$var wire 1 @ Cin $end
$var wire 1 & S $end
$var wire 1 ? Cout $end
$var wire 1 D sum1 $end
$var wire 1 E carry1 $end
$var wire 1 F carry2 $end
$scope module HA1 $end
$var wire 1 8 A $end
$var wire 1 < B $end
$var wire 1 D Sum $end
$var wire 1 E Carry $end
$upscope $end
$scope module HA2 $end
$var wire 1 D A $end
$var wire 1 @ B $end
$var wire 1 & Sum $end
$var wire 1 F Carry $end
$upscope $end
$upscope $end
$scope module FA2 $end
$var wire 1 7 A $end
$var wire 1 ; B $end
$var wire 1 ? Cin $end
$var wire 1 % S $end
$var wire 1 > Cout $end
$var wire 1 G sum1 $end
$var wire 1 H carry1 $end
$var wire 1 I carry2 $end
$scope module HA1 $end
$var wire 1 7 A $end
$var wire 1 ; B $end
$var wire 1 G Sum $end
$var wire 1 H Carry $end
$upscope $end
$scope module HA2 $end
$var wire 1 G A $end
$var wire 1 ? B $end
$var wire 1 % Sum $end
$var wire 1 I Carry $end
$upscope $end
$upscope $end
$scope module FA3 $end
$var wire 1 6 A $end
$var wire 1 : B $end
$var wire 1 > Cin $end
$var wire 1 $ S $end
$var wire 1 ( Cout $end
$var wire 1 J sum1 $end
$var wire 1 K carry1 $end
$var wire 1 L carry2 $end
$scope module HA1 $end
$var wire 1 6 A $end
$var wire 1 : B $end
$var wire 1 J Sum $end
$var wire 1 K Carry $end
$upscope $end
$scope module HA2 $end
$var wire 1 J A $end
$var wire 1 > B $end
$var wire 1 $ Sum $end
$var wire 1 L Carry $end
$date
	Fri May 02 19:17:16 2025
$end
$version
	ModelSim Version 10.1d
$end
$timescale
	1ns
$end
$upscope $end
$upscope $end
$upscope $end
$var wire 1 $ Sum [3] $end
$var wire 1 % Sum [2] $end
$var wire 1 & Sum [1] $end
$var wire 1 ' Sum [0] $end
$var wire 1 ( Cout $end
$scope task check_result $end
$scope begin timeout_block $end
$upscope $end
$upscope $end
$scope module uut $end
$var wire 1 5 cin $end
$var wire 1 6 a [3] $end
$var wire 1 7 a [2] $end
$var wire 1 8 a [1] $end
$var wire 1 9 a [0] $end
$var wire 1 : b [3] $end
$var wire 1 ; b [2] $end
$var wire 1 < b [1] $end
$var wire 1 = b [0] $end
$var wire 1 ( cout $end
$var wire 1 $ s [3] $end
$var wire 1 % s [2] $end
$var wire 1 & s [1] $end
$var wire 1 ' s [0] $end
$var wire 1 > carry [2] $end
$var wire 1 ? carry [1] $end
$var wire 1 @ carry [0] $end
$scope module FA0 $end
$var wire 1 9 A $end
$var wire 1 = B $end
$var wire 1 5 Cin $end
$var wire 1 ' S $end
$var wire 1 @ Cout $end
$var wire 1 A sum1 $end
$var wire 1 B carry1 $end
$var wire 1 C carry2 $end
$scope module HA1 $end
$var wire 1 9 A $end
$var wire 1 = B $end
$var wire 1 A Sum $end
$var wire 1 B Carry $end
$upscope $end
$scope module HA2 $end
$var wire 1 A A $end
$var wire 1 5 B $end
$var wire 1 ' Sum $end
$var wire 1 C Carry $end
$upscope $end
$upscope $end
$scope module FA1 $end
$var wire 1 8 A $end
$var wire 1 < B $end
$var wire 1 @ Cin $end
$var wire 1 & S $end
$var wire 1 ? Cout $end
$var wire 1 D sum1 $end
$var wire 1 E carry1 $end
$var wire 1 F carry2 $end
$scope module HA1 $end
$var wire 1 8 A $end
$var wire 1 < B $end
$var wire 1 D Sum $end
$var wire 1 E Carry $end
$upscope $end
$scope module HA2 $end
$var wire 1 D A $end
$var wire 1 @ B $end
$var wire 1 & Sum $end
$var wire 1 F Carry $end
$upscope $end
$upscope $end
$scope module FA2 $end
$var wire 1 7 A $end
$var wire 1 ; B $end
$var wire 1 ? Cin $end
$var wire 1 % S $end
$var wire 1 > Cout $end
$var wire 1 G sum1 $end
$var wire 1 H carry1 $end
$var wire 1 I carry2 $end
$scope module HA1 $end
$var wire 1 7 A $end
$var wire 1 ; B $end
$var wire 1 G Sum $end
$var wire 1 H Carry $end
$upscope $end
$scope module HA2 $end
$var wire 1 G A $end
$var wire 1 ? B $end
$var wire 1 % Sum $end
$var wire 1 I Carry $end
$upscope $end
$upscope $end
$scope module FA3 $end
$var wire 1 6 A $end
$var wire 1 : B $end
$var wire 1 > Cin $end
$var wire 1 $ S $end
$var wire 1 ( Cout $end
$var wire 1 J sum1 $end
$var wire 1 K carry1 $end
$var wire 1 L carry2 $end
$scope module HA1 $end
$var wire 1 6 A $end
$var wire 1 : B $end
$var wire 1 J Sum $end
$var wire 1 K Carry $end
$upscope $end
$scope module HA2 $end
$var wire 1 J A $end
$var wire 1 > B $end
$var wire 1 $ Sum $end
$var wire 1 L Carry $end
$upscope $end
$upscope $end
$upscope $end
$upscope $end
$enddefinitions $end
#0
$dumpvars
bx !
bx "
x#
bx )
bx /
bx 0
x1
bx 2
b0 *
b0 +
r0 ,
r0 -
r0 .
r0 3
r0 4
x'
x&
x%
x$
x(
x@
x?
x>
xA
xB
xC
xD
xE
xF
xG
xH
xI
xJ
xK
xL
x9
x8
x7
x6
x=
x<
x;
x:
x5
$end
#10
b0 /
b0 0
11
b0 !
b0 "
1#
b1 2
r10 3
0=
0<
0;
0:
09
08
07
06
15
#12
0A
0D
0G
0J
#13
0B
0E
0H
0K
#14
1'
#15
0C
0F
0I
0L
0@
0?
0>
0(
#17
0&
0%
0$
r17 4
r7 ,
b1 *
b1 +
01
0#
b0 2
r17 3
05
#19
0'
r19 4
b10 *
b10 +
b1 0
11
b1 "
1#
b10 2
r19 3
1=
15
#21
1A
1'
#23
0'
#24
1C
1@
#26
1&
r26 4
b11 *
b11 +
01
0#
b1 2
r26 3
05
#28
1'
#29
0C
0@
#31
0&
r31 4
b100 *
b100 +
b10 0
11
b10 "
1#
b11 2
r31 3
0=
1<
15
#33
0A
1D
0'
#35
1'
1&
r35 4
b101 *
b101 +
01
0#
b10 2
r35 3
05
#37
0'
r37 4
b110 *
b110 +
b11 0
11
b11 "
1#
b100 2
r37 3
1=
15
#39
1A
1'
#41
0'
#42
1C
1@
#44
0&
#45
1F
1?
#47
1%
r47 4
r10 ,
b111 *
b111 +
01
0#
b11 2
r47 3
05
#49
1'
#50
0C
0@
#52
1&
#53
0F
0?
#55
0%
r55 4
b1000 *
b1000 +
b100 0
11
b100 "
1#
b101 2
r55 3
0=
0<
1;
15
#57
0A
0D
1G
0'
#59
1'
0&
1%
r59 4
b1001 *
b1001 +
01
0#
b100 2
r59 3
05
#61
0'
r61 4
b1010 *
b1010 +
b101 0
11
b101 "
1#
b110 2
r61 3
1=
15
#63
1A
1'
#65
0'
#66
1C
1@
#68
1&
r68 4
b1011 *
b1011 +
01
0#
b101 2
r68 3
05
#70
1'
#71
0C
0@
#73
0&
r73 4
b1100 *
b1100 +
b110 0
11
b110 "
1#
b111 2
r73 3
0=
1<
15
#75
0A
1D
0'
#77
1'
1&
r77 4
b1101 *
b1101 +
01
0#
b110 2
r77 3
05
#79
0'
r79 4
b1110 *
b1110 +
b111 0
11
b111 "
1#
b1000 2
r79 3
1=
15
#81
1A
1'
#83
0'
#84
1C
1@
#86
0&
#87
1F
1?
#89
0%
#90
1I
1>
#92
1$
r92 4
r13 ,
b1111 *
b1111 +
01
0#
b111 2
r92 3
05
#94
1'
#95
0C
0@
#97
1&
#98
0F
0?
#100
1%
#101
0I
0>
#103
0$
r103 4
b10000 *
b10000 +
b1000 0
11
b1000 "
1#
b1001 2
r103 3
0=
0<
0;
1:
15
#105
0A
0D
0G
1J
0'
#107
1'
0&
0%
1$
r107 4
b10001 *
b10001 +
01
0#
b1000 2
r107 3
05
#109
0'
r109 4
b10010 *
b10010 +
b1001 0
11
b1001 "
1#
b1010 2
r109 3
1=
15
#111
1A
1'
#113
0'
#114
1C
1@
#116
1&
r116 4
b10011 *
b10011 +
01
0#
b1001 2
r116 3
05
#118
1'
#119
0C
0@
#121
0&
r121 4
b10100 *
b10100 +
b1010 0
11
b1010 "
1#
b1011 2
r121 3
0=
1<
15
#123
0A
1D
0'
#125
1'
1&
r125 4
b10101 *
b10101 +
01
0#
b1010 2
r125 3
05
#127
0'
r127 4
b10110 *
b10110 +
b1011 0
11
b1011 "
1#
b1100 2
r127 3
1=
15
#129
1A
1'
#131
0'
#132
1C
1@
#134
0&
#135
1F
1?
#137
1%
r137 4
b10111 *
b10111 +
01
0#
b1011 2
r137 3
05
#139
1'
#140
0C
0@
#142
1&
#143
0F
0?
#145
0%
r145 4
b11000 *
b11000 +
b1100 0
11
b1100 "
1#
b1101 2
r145 3
0=
0<
1;
15
#147
0A
0D
1G
0'
#149
1'
0&
1%
r149 4
b11001 *
b11001 +
01
0#
b1100 2
r149 3
05
#151
0'
r151 4
b11010 *
b11010 +
b1101 0
11
b1101 "
1#
b1110 2
r151 3
1=
15
#153
1A
1'
#155
0'
#156
1C
1@
#158
1&
r158 4
b11011 *
b11011 +
01
0#
b1101 2
r158 3
05
#160
1'
#161
0C
0@
#163
0&
r163 4
b11100 *
b11100 +
b1110 0
11
b1110 "
1#
b1111 2
r163 3
0=
1<
15
#165
0A
1D
0'
#167
1'
1&
r167 4
b11101 *
b11101 +
01
0#
b1110 2
r167 3
05
#169
0'
r169 4
b11110 *
b11110 +
b1111 0
11
b1111 "
1#
b10000 2
r169 3
1=
15
#171
1A
1'
#173
0'
#174
1C
1@
#176
0&
#177
1F
1?
#179
0%
#180
1I
1>
#182
0$
#183
1L
1(
r183 4
r14 ,
b11111 *
b11111 +
01
0#
b1111 2
r183 3
05
#185
1'
#186
0C
0@
#188
1&
#189
0F
0?
#191
1%
#192
0I
0>
#194
1$
#195
0L
0(
r195 4
b100000 *
b100000 +
b1 /
b0 0
11
b1 !
b0 "
1#
b10 2
r195 3
0=
0<
0;
0:
19
15
#197
0D
0G
0J
0'
#198
1C
1@
#199
0%
0$
r199 4
b100001 *
b100001 +
01
0#
b1 2
r199 3
05
#201
1'
#202
0C
0@
#204
0&
r204 4
b100010 *
b100010 +
b1 0
11
b1 "
1#
b11 2
r204 3
1=
15
#206
0A
0'
#207
1B
1@
#208
1'
#209
1&
r209 4
b100011 *
b100011 +
01
0#
b10 2
r209 3
05
#211
0'
r211 4
b100100 *
b100100 +
b10 0
11
b10 "
1#
b100 2
r211 3
0=
1<
15
#213
1A
1D
1'
#214
0B
0@
#215
0'
#216
1C
1@
#218
0&
#219
1F
1?
#221
1%
r221 4
b100101 *
b100101 +
01
0#
b11 2
r221 3
05
#223
1'
#224
0C
0@
#226
1&
#227
0F
0?
#229
0%
r229 4
b100110 *
b100110 +
b11 0
11
b11 "
1#
b101 2
r229 3
1=
15
#231
0A
0'
#232
1B
1@
#233
1'
#234
0&
#235
1F
1?
#237
1%
r237 4
b100111 *
b100111 +
01
0#
b100 2
r237 3
05
#239
0'
r239 4
b101000 *
b101000 +
b100 0
11
b100 "
1#
b110 2
r239 3
0=
0<
1;
15
#241
1A
0D
1G
1'
#242
0B
0@
#243
0'
0%
#244
1C
0F
1I
1@
0?
1>
#246
1&
1%
1$
#247
0I
0>
#249
0$
r249 4
b101001 *
b101001 +
01
0#
b101 2
r249 3
05
#251
1'
#252
0C
0@
#254
0&
r254 4
b101010 *
b101010 +
b101 0
11
b101 "
1#
b111 2
r254 3
1=
15
#256
0A
0'
#257
1B
1@
#258
1'
#259
1&
r259 4
b101011 *
b101011 +
01
0#
b110 2
r259 3
05
#261
0'
r261 4
b101100 *
b101100 +
b110 0
11
b110 "
1#
b1000 2
r261 3
0=
1<
15
#263
1A
1D
1'
#264
0B
0@
#265
0'
#266
1C
1@
#268
0&
#269
1F
1?
#271
0%
#272
1I
1>
#274
1$
r274 4
b101101 *
b101101 +
01
0#
b111 2
r274 3
05
#276
1'
#277
0C
0@
#279
1&
#280
0F
0?
#282
1%
#283
0I
0>
#285
0$
r285 4
b101110 *
b101110 +
b111 0
11
b111 "
1#
b1001 2
r285 3
1=
15
#287
0A
0'
#288
1B
1@
#289
1'
#290
0&
#291
1F
1?
#293
0%
#294
1I
1>
#296
1$
r296 4
b101111 *
b101111 +
01
0#
b1000 2
r296 3
05
#298
0'
r298 4
b110000 *
b110000 +
b1000 0
11
b1000 "
1#
b1010 2
r298 3
0=
0<
0;
1:
15
#300
1A
0D
0G
1J
1'
#301
0B
0@
#302
0'
1%
0$
#303
1C
0F
0I
1L
1@
0?
0>
1(
#305
1&
0%
1$
#306
0L
0(
r306 4
b110001 *
b110001 +
01
0#
b1001 2
r306 3
05
#308
1'
#309
0C
0@
#311
0&
r311 4
b110010 *
b110010 +
b1001 0
11
b1001 "
1#
b1011 2
r311 3
1=
15
#313
0A
0'
#314
1B
1@
#315
1'
#316
1&
r316 4
b110011 *
b110011 +
01
0#
b1010 2
r316 3
05
#318
0'
r318 4
b110100 *
b110100 +
b1010 0
11
b1010 "
1#
b1100 2
r318 3
0=
1<
15
#320
1A
1D
1'
#321
0B
0@
#322
0'
#323
1C
1@
#325
0&
#326
1F
1?
#328
1%
r328 4
b110101 *
b110101 +
01
0#
b1011 2
r328 3
05
#330
1'
#331
0C
0@
#333
1&
#334
0F
0?
#336
0%
r336 4
b110110 *
b110110 +
b1011 0
11
b1011 "
1#
b1101 2
r336 3
1=
15
#338
0A
0'
#339
1B
1@
#340
1'
#341
0&
#342
1F
1?
#344
1%
r344 4
b110111 *
b110111 +
01
0#
b1100 2
r344 3
05
#346
0'
r346 4
b111000 *
b111000 +
b1100 0
11
b1100 "
1#
b1110 2
r346 3
0=
0<
1;
15
#348
1A
0D
1G
1'
#349
0B
0@
#350
0'
0%
#351
1C
0F
1I
1@
0?
1>
#353
1&
1%
0$
#354
0I
1L
0>
1(
#356
1$
#357
0L
0(
r357 4
b111001 *
b111001 +
01
0#
b1101 2
r357 3
05
#359
1'
#360
0C
0@
#362
0&
r362 4
b111010 *
b111010 +
b1101 0
11
b1101 "
1#
b1111 2
r362 3
1=
15
#364
0A
0'
#365
1B
1@
#366
1'
#367
1&
r367 4
b111011 *
b111011 +
01
0#
b1110 2
r367 3
05
#369
0'
r369 4
b111100 *
b111100 +
b1110 0
11
b1110 "
1#
b10000 2
r369 3
0=
1<
15
#371
1A
1D
1'
#372
0B
0@
#373
0'
#374
1C
1@
#376
0&
#377
1F
1?
#379
0%
#380
1I
1>
#382
0$
#383
1L
1(
r383 4
b111101 *
b111101 +
01
0#
b1111 2
r383 3
05
#385
1'
#386
0C
0@
#388
1&
#389
0F
0?
#391
1%
#392
0I
0>
#394
1$
#395
0L
0(
r395 4
b111110 *
b111110 +
b1111 0
11
b1111 "
1#
b10001 2
r395 3
1=
15
#397
0A
0'
#398
1B
1@
#399
1'
#400
0&
#401
1F
1?
#403
0%
#404
1I
1>
#406
0$
#407
1L
1(
r407 4
b111111 *
b111111 +
01
0#
b10000 2
r407 3
05
#409
0'
r409 4
b1000000 *
b1000000 +
b10 /
b0 0
11
b10 !
b0 "
1#
b11 2
r409 3
0=
0<
0;
0:
09
18
15
#411
0G
0J
1'
#412
0B
0@
#413
1%
1$
#414
1&
0I
0L
0>
0(
#415
0F
0?
#416
0$
#417
0%
r417 4
b1000001 *
b1000001 +
01
0#
b10 2
r417 3
05
#419
0'
r419 4
b1000010 *
b1000010 +
b1 0
11
b1 "
1#
b100 2
r419 3
1=
15
#421
1A
1'
#423
0'
#424
1C
1@
#426
0&
#427
1F
1?
#429
1%
r429 4
b1000011 *
b1000011 +
01
0#
b11 2
r429 3
05
#431
1'
#432
0C
0@
#434
1&
#435
0F
0?
#437
0%
r437 4
b1000100 *
b1000100 +
b10 0
11
b10 "
1#
b101 2
r437 3
0=
1<
15
#439
0A
0D
0'
#440
1E
1?
#441
1'
0&
#442
1%
r442 4
b1000101 *
b1000101 +
01
0#
b100 2
r442 3
05
#444
0'
r444 4
b1000110 *
b1000110 +
b11 0
11
b11 "
1#
b110 2
r444 3
1=
15
#446
1A
1'
#448
0'
#449
1C
1@
#451
1&
r451 4
b1000111 *
b1000111 +
01
0#
b101 2
r451 3
05
#453
1'
#454
0C
0@
#456
0&
r456 4
b1001000 *
b1001000 +
b100 0
11
b100 "
1#
b111 2
r456 3
0=
0<
1;
15
#458
0A
1D
1G
0'
#459
0E
0?
#460
1'
1&
r460 4
b1001001 *
b1001001 +
01
0#
b110 2
r460 3
05
#462
0'
r462 4
b1001010 *
b1001010 +
b101 0
11
b101 "
1#
b1000 2
r462 3
1=
15
#464
1A
1'
#466
0'
#467
1C
1@
#469
0&
#470
1F
1?
#472
0%
#473
1I
1>
#475
1$
r475 4
b1001011 *
b1001011 +
01
0#
b111 2
r475 3
05
#477
1'
#478
0C
0@
#480
1&
#481
0F
0?
#483
1%
#484
0I
0>
#486
0$
r486 4
b1001100 *
b1001100 +
b110 0
11
b110 "
1#
b1001 2
r486 3
0=
1<
15
#488
0A
0D
0'
#489
1E
1?
#490
1'
0&
#491
0%
#492
1I
1>
#494
1$
r494 4
b1001101 *
b1001101 +
01
0#
b1000 2
r494 3
05
#496
0'
r496 4
b1001110 *
b1001110 +
b111 0
11
b111 "
1#
b1010 2
r496 3
1=
15
#498
1A
1'
#500
0'
#501
1C
1@
#503
1&
r503 4
b1001111 *
b1001111 +
01
0#
b1001 2
r503 3
05
#505
1'
#506
0C
0@
#508
0&
r508 4
b1010000 *
b1010000 +
b1000 0
11
b1000 "
1#
b1011 2
r508 3
0=
0<
0;
1:
15
#510
0A
1D
0G
1J
0'
#511
0E
0?
#512
1'
1&
0$
#513
0I
1L
0>
1(
#515
1$
#516
0L
0(
r516 4
b1010001 *
b1010001 +
01
0#
b1010 2
r516 3
05
#518
0'
r518 4
b1010010 *
b1010010 +
b1001 0
11
b1001 "
1#
b1100 2
r518 3
1=
15
#520
1A
1'
#522
0'
#523
1C
1@
#525
0&
#526
1F
1?
#528
1%
r528 4
b1010011 *
b1010011 +
01
0#
b1011 2
r528 3
05
#530
1'
#531
0C
0@
#533
1&
#534
0F
0?
#536
0%
r536 4
b1010100 *
b1010100 +
b1010 0
11
b1010 "
1#
b1101 2
r536 3
0=
1<
15
#538
0A
0D
0'
#539
1E
1?
#540
1'
0&
#541
1%
r541 4
b1010101 *
b1010101 +
01
0#
b1100 2
r541 3
05
#543
0'
r543 4
b1010110 *
b1010110 +
b1011 0
11
b1011 "
1#
b1110 2
r543 3
1=
15
#545
1A
1'
#547
0'
#548
1C
1@
#550
1&
r550 4
b1010111 *
b1010111 +
01
0#
b1101 2
r550 3
05
#552
1'
#553
0C
0@
#555
0&
r555 4
b1011000 *
b1011000 +
b1100 0
11
b1100 "
1#
b1111 2
r555 3
0=
0<
1;
15
#557
0A
1D
1G
0'
#558
0E
0?
#559
1'
1&
r559 4
b1011001 *
b1011001 +
01
0#
b1110 2
r559 3
05
#561
0'
r561 4
b1011010 *
b1011010 +
b1101 0
11
b1101 "
1#
b10000 2
r561 3
1=
15
#563
1A
1'
#565
0'
#566
1C
1@
#568
0&
#569
1F
1?
#571
0%
#572
1I
1>
#574
0$
#575
1L
1(
r575 4
b1011011 *
b1011011 +
01
0#
b1111 2
r575 3
05
#577
1'
#578
0C
0@
#580
1&
#581
0F
0?
#583
1%
#584
0I
0>
#586
1$
#587
0L
0(
r587 4
b1011100 *
b1011100 +
b1110 0
11
b1110 "
1#
b10001 2
r587 3
0=
1<
15
#589
0A
0D
0'
#590
1E
1?
#591
1'
0&
#592
0%
#593
1I
1>
#595
0$
#596
1L
1(
r596 4
b1011101 *
b1011101 +
01
0#
b10000 2
r596 3
05
#598
0'
r598 4
b1011110 *
b1011110 +
b1111 0
11
b1111 "
1#
b10010 2
r598 3
1=
15
#600
1A
1'
#602
0'
#603
1C
1@
#605
1&
r605 4
b1011111 *
b1011111 +
01
0#
b10001 2
r605 3
05
#607
1'
#608
0C
0@
#610
0&
r610 4
b1100000 *
b1100000 +
b11 /
b0 0
11
b11 !
b0 "
1#
b100 2
r610 3
0=
0<
0;
0:
19
15
#612
1D
0G
0J
0'
#613
0E
1C
0?
1@
#614
1$
#615
0I
0L
0>
0(
#616
1F
1?
#617
0$
#618
1%
r618 4
b1100001 *
b1100001 +
01
0#
b11 2
r618 3
05
#620
1'
#621
0C
0@
#623
1&
#624
0F
0?
#626
0%
r626 4
b1100010 *
b1100010 +
b1 0
11
b1 "
1#
b101 2
r626 3
1=
15
#628
0A
0'
#629
1B
1@
#630
1'
#631
0&
#632
1F
1?
#634
1%
r634 4
b1100011 *
b1100011 +
01
0#
b100 2
r634 3
05
#636
0'
r636 4
b1100100 *
b1100100 +
b10 0
11
b10 "
1#
b110 2
r636 3
0=
1<
15
#638
1A
0D
1'
#639
0B
1E
0@
#640
0'
#641
1C
0F
1@
#643
1&
r643 4
b1100101 *
b1100101 +
01
0#
b101 2
r643 3
05
#645
1'
#646
0C
0@
#648
0&
r648 4
b1100110 *
b1100110 +
b11 0
11
b11 "
1#
b111 2
r648 3
1=
15
#650
0A
0'
#651
1B
1@
#652
1'
#653
1&
r653 4
b1100111 *
b1100111 +
01
0#
b110 2
r653 3
05
#655
0'
r655 4
b1101000 *
b1101000 +
b100 0
11
b100 "
1#
b1000 2
r655 3
0=
0<
1;
15
#657
1A
1D
1G
1'
#658
0B
0E
0@
0?
#659
0'
#660
1C
1@
#662
0&
#663
1F
1?
#665
0%
#666
1I
1>
#668
1$
r668 4
b1101001 *
b1101001 +
01
0#
b111 2
r668 3
05
#670
1'
#671
0C
0@
#673
1&
#674
0F
0?
#676
1%
#677
0I
0>
#679
0$
r679 4
b1101010 *
b1101010 +
b101 0
11
b101 "
1#
b1001 2
r679 3
1=
15
#681
0A
0'
#682
1B
1@
#683
1'
#684
0&
#685
1F
1?
#687
0%
#688
1I
1>
#690
1$
r690 4
b1101011 *
b1101011 +
01
0#
b1000 2
r690 3
05
#692
0'
r692 4
b1101100 *
b1101100 +
b110 0
11
b110 "
1#
b1010 2
r692 3
0=
1<
15
#694
1A
0D
1'
#695
0B
1E
0@
#696
0'
#697
1C
0F
1@
#699
1&
r699 4
b1101101 *
b1101101 +
01
0#
b1001 2
r699 3
05
#701
1'
#702
0C
0@
#704
0&
r704 4
b1101110 *
b1101110 +
b111 0
11
b111 "
1#
b1011 2
r704 3
1=
15
#706
0A
0'
#707
1B
1@
#708
1'
#709
1&
r709 4
b1101111 *
b1101111 +
01
0#
b1010 2
r709 3
05
#711
0'
r711 4
b1110000 *
b1110000 +
b1000 0
11
b1000 "
1#
b1100 2
r711 3
0=
0<
0;
1:
15
#713
1A
1D
0G
1J
1'
#714
0B
0E
0@
0?
#715
0'
0$
#716
1C
0I
1L
1@
0>
1(
#718
0&
1$
#719
1F
0L
1?
0(
#721
1%
r721 4
b1110001 *
b1110001 +
01
0#
b1011 2
r721 3
05
#723
1'
#724
0C
0@
#726
1&
#727
0F
0?
#729
0%
r729 4
b1110010 *
b1110010 +
b1001 0
11
b1001 "
1#
b1101 2
r729 3
1=
15
#731
0A
0'
#732
1B
1@
#733
1'
#734
0&
#735
1F
1?
#737
1%
r737 4
b1110011 *
b1110011 +
01
0#
b1100 2
r737 3
05
#739
0'
r739 4
b1110100 *
b1110100 +
b1010 0
11
b1010 "
1#
b1110 2
r739 3
0=
1<
15
#741
1A
0D
1'
#742
0B
1E
0@
#743
0'
#744
1C
0F
1@
#746
1&
r746 4
b1110101 *
b1110101 +
01
0#
b1101 2
r746 3
05
#748
1'
#749
0C
0@
#751
0&
r751 4
b1110110 *
b1110110 +
b1011 0
11
b1011 "
1#
b1111 2
r751 3
1=
15
#753
0A
0'
#754
1B
1@
#755
1'
#756
1&
r756 4
b1110111 *
b1110111 +
01
0#
b1110 2
r756 3
05
#758
0'
r758 4
b1111000 *
b1111000 +
b1100 0
11
b1100 "
1#
b10000 2
r758 3
0=
0<
1;
15
#760
1A
1D
1G
1'
#761
0B
0E
0@
0?
#762
0'
#763
1C
1@
#765
0&
#766
1F
1?
#768
0%
#769
1I
1>
#771
0$
#772
1L
1(
r772 4
b1111001 *
b1111001 +
01
0#
b1111 2
r772 3
05
#774
1'
#775
0C
0@
#777
1&
#778
0F
0?
#780
1%
#781
0I
0>
#783
1$
#784
0L
0(
r784 4
b1111010 *
b1111010 +
b1101 0
11
b1101 "
1#
b10001 2
r784 3
1=
15
#786
0A
0'
#787
1B
1@
#788
1'
#789
0&
#790
1F
1?
#792
0%
#793
1I
1>
#795
0$
#796
1L
1(
r796 4
b1111011 *
b1111011 +
01
0#
b10000 2
r796 3
05
#798
0'
r798 4
b1111100 *
b1111100 +
b1110 0
11
b1110 "
1#
b10010 2
r798 3
0=
1<
15
#800
1A
0D
1'
#801
0B
1E
0@
#802
0'
#803
1C
0F
1@
#805
1&
r805 4
b1111101 *
b1111101 +
01
0#
b10001 2
r805 3
05
#807
1'
#808
0C
0@
#810
0&
r810 4
b1111110 *
b1111110 +
b1111 0
11
b1111 "
1#
b10011 2
r810 3
1=
15
#812
0A
0'
#813
1B
1@
#814
1'
#815
1&
r815 4
b1111111 *
b1111111 +
01
0#
b10010 2
r815 3
05
#817
0'
r817 4
b10000000 *
b10000000 +
b100 /
b0 0
11
b100 !
b0 "
1#
b101 2
r817 3
0=
0<
0;
0:
09
08
17
15
#819
0J
1'
#820
0B
0E
0@
0?
#821
1$
#822
0&
1%
0L
0(
#823
0I
0>
#825
0$
r825 4
b10000001 *
b10000001 +
01
0#
b100 2
r825 3
05
#827
0'
r827 4
b10000010 *
b10000010 +
b1 0
11
b1 "
1#
b110 2
r827 3
1=
15
#829
1A
1'
#831
0'
#832
1C
1@
#834
1&
r834 4
b10000011 *
b10000011 +
01
0#
b101 2
r834 3
05
#836
1'
#837
0C
0@
#839
0&
r839 4
b10000100 *
b10000100 +
b10 0
11
b10 "
1#
b111 2
r839 3
0=
1<
15
#841
0A
1D
0'
#843
1'
1&
r843 4
b10000101 *
b10000101 +
01
0#
b110 2
r843 3
05
#845
0'
r845 4
b10000110 *
b10000110 +
b11 0
11
b11 "
1#
b1000 2
r845 3
1=
15
#847
1A
1'
#849
0'
#850
1C
1@
#852
0&
#853
1F
1?
#855
0%
#856
1I
1>
#858
1$
r858 4
b10000111 *
b10000111 +
01
0#
b111 2
r858 3
05
#860
1'
#861
0C
0@
#863
1&
#864
0F
0?
#866
1%
#867
0I
0>
#869
0$
r869 4
b10001000 *
b10001000 +
b100 0
11
b100 "
1#
b1001 2
r869 3
0=
0<
1;
15
#871
0A
0D
0G
0'
#872
1H
1>
#873
1'
0&
0%
#874
1$
r874 4
b10001001 *
b10001001 +
01
0#
b1000 2
r874 3
05
#876
0'
r876 4
b10001010 *
b10001010 +
b101 0
11
b101 "
1#
b1010 2
r876 3
1=
15
#878
1A
1'
#880
0'
#881
1C
1@
#883
1&
r883 4
b10001011 *
b10001011 +
01
0#
b1001 2
r883 3
05
#885
1'
#886
0C
0@
#888
0&
r888 4
b10001100 *
b10001100 +
b110 0
11
b110 "
1#
b1011 2
r888 3
0=
1<
15
#890
0A
1D
0'
#892
1'
1&
r892 4
b10001101 *
b10001101 +
01
0#
b1010 2
r892 3
05
#894
0'
r894 4
b10001110 *
b10001110 +
b111 0
11
b111 "
1#
b1100 2
r894 3
1=
15
#896
1A
1'
#898
0'
#899
1C
1@
#901
0&
#902
1F
1?
#904
1%
r904 4
b10001111 *
b10001111 +
01
0#
b1011 2
r904 3
05
#906
1'
#907
0C
0@
#909
1&
#910
0F
0?
#912
0%
r912 4
b10010000 *
b10010000 +
b1000 0
11
b1000 "
1#
b1101 2
r912 3
0=
0<
0;
1:
15
#914
0A
0D
1G
1J
0'
#915
0H
0>
#916
1'
0&
1%
r916 4
b10010001 *
b10010001 +
01
0#
b1100 2
r916 3
05
#918
0'
r918 4
b10010010 *
b10010010 +
b1001 0
11
b1001 "
1#
b1110 2
r918 3
1=
15
#920
1A
1'
#922
0'
#923
1C
1@
