Takehome Midterm/Q7/VCDfile.vcd
$date
	Fri May 16 20:21:35 2025
$end
$version
	ModelSim Version 10.1d
$end
$timescale
	1ps
$end
$scope module testbench $end
$var reg 16 ! a [15:0] $end
$var reg 16 " b [15:0] $end
$var reg 1 # Cin $end
$var wire 1 $ Sum [15] $end
$var wire 1 % Sum [14] $end
$var wire 1 & Sum [13] $end
$var wire 1 ' Sum [12] $end
$var wire 1 ( Sum [11] $end
$var wire 1 ) Sum [10] $end
$var wire 1 * Sum [9] $end
$var wire 1 + Sum [8] $end
$var wire 1 , Sum [7] $end
$var wire 1 - Sum [6] $end
$var wire 1 . Sum [5] $end
$var wire 1 / Sum [4] $end
$var wire 1 0 Sum [3] $end
$var wire 1 1 Sum [2] $end
$var wire 1 2 Sum [1] $end
$var wire 1 3 Sum [0] $end
$var wire 1 4 Cout $end
$var reg 17 5 expected_sum [16:0] $end
$var integer 32 6 random_correct $end
$var integer 32 7 edge_correct $end
$var integer 32 8 total_tests $end
$var integer 32 9 i $end
$scope task test_case $end
$var reg 16 : a_val [15:0] $end
$var reg 16 ; b_val [15:0] $end
$var reg 1 < cin_val $end
$var reg 1 = is_edge_case $end
$upscope $end
$scope module dut $end
$var wire 1 > a [15] $end
$var wire 1 ? a [14] $end
$var wire 1 @ a [13] $end
$var wire 1 A a [12] $end
$var wire 1 B a [11] $end
$var wire 1 C a [10] $end
$var wire 1 D a [9] $end
$var wire 1 E a [8] $end
$var wire 1 F a [7] $end
$var wire 1 G a [6] $end
$var wire 1 H a [5] $end
$var wire 1 I a [4] $end
$var wire 1 J a [3] $end
$var wire 1 K a [2] $end
$var wire 1 L a [1] $end
$var wire 1 M a [0] $end
$var wire 1 N b [15] $end
$var wire 1 O b [14] $end
$var wire 1 P b [13] $end
$var wire 1 Q b [12] $end
$var wire 1 R b [11] $end
$var wire 1 S b [10] $end
$var wire 1 T b [9] $end
$var wire 1 U b [8] $end
$var wire 1 V b [7] $end
$var wire 1 W b [6] $end
$var wire 1 X b [5] $end
$var wire 1 Y b [4] $end
$var wire 1 Z b [3] $end
$var wire 1 [ b [2] $end
$var wire 1 \ b [1] $end
$var wire 1 ] b [0] $end
$var wire 1 ^ Cin $end
$var wire 1 $ Sum [15] $end
$var wire 1 % Sum [14] $end
$var wire 1 & Sum [13] $end
$var wire 1 ' Sum [12] $end
$var wire 1 ( Sum [11] $end
$var wire 1 ) Sum [10] $end
$var wire 1 * Sum [9] $end
$var wire 1 + Sum [8] $end
$var wire 1 , Sum [7] $end
$var wire 1 - Sum [6] $end
$var wire 1 . Sum [5] $end
$var wire 1 / Sum [4] $end
$var wire 1 0 Sum [3] $end
$var wire 1 1 Sum [2] $end
$var wire 1 2 Sum [1] $end
$var wire 1 3 Sum [0] $end
$var wire 1 4 Cout $end
$var wire 1 _ p [15] $end
$var wire 1 ` p [14] $end
$var wire 1 a p [13] $end
$var wire 1 b p [12] $end
$var wire 1 c p [11] $end
$var wire 1 d p [10] $end
$var wire 1 e p [9] $end
$var wire 1 f p [8] $end
$var wire 1 g p [7] $end
$var wire 1 h p [6] $end
$var wire 1 i p [5] $end
$var wire 1 j p [4] $end
$var wire 1 k p [3] $end
$var wire 1 l p [2] $end
$var wire 1 m p [1] $end
$var wire 1 n p [0] $end
$var wire 1 o g [15] $end
$var wire 1 p g [14] $end
$var wire 1 q g [13] $end
$var wire 1 r g [12] $end
$var wire 1 s g [11] $end
$var wire 1 t g [10] $end
$var wire 1 u g [9] $end
$var wire 1 v g [8] $end
$var wire 1 w g [7] $end
$var wire 1 x g [6] $end
$var wire 1 y g [5] $end
$var wire 1 z g [4] $end
$var wire 1 { g [3] $end
$var wire 1 | g [2] $end
$var wire 1 } g [1] $end
$var wire 1 ~ g [0] $end
$var wire 1 !! carry [16] $end
$var wire 1 "! carry [15] $end
$var wire 1 #! carry [14] $end
$var wire 1 $! carry [13] $end
$var wire 1 %! carry [12] $end
$var wire 1 &! carry [11] $end
$var wire 1 '! carry [10] $end
$var wire 1 (! carry [9] $end
$var wire 1 )! carry [8] $end
$var wire 1 *! carry [7] $end
$var wire 1 +! carry [6] $end
$var wire 1 ,! carry [5] $end
$var wire 1 -! carry [4] $end
$var wire 1 .! carry [3] $end
$var wire 1 /! carry [2] $end
$var wire 1 0! carry [1] $end
$var wire 1 1! carry [0] $end
$scope begin stage[15] $end
$var parameter 32 2! i $end
$upscope $end
$scope begin stage[14] $end
$var parameter 32 3! i $end
$upscope $end
$scope begin stage[13] $end
$var parameter 32 4! i $end
$upscope $end
$scope begin stage[12] $end
$var parameter 32 5! i $end
$upscope $end
$scope begin stage[11] $end
$var parameter 32 6! i $end
$upscope $end
$scope begin stage[10] $end
$var parameter 32 7! i $end
$upscope $end
$scope begin stage[9] $end
$var parameter 32 8! i $end
$upscope $end
$scope begin stage[8] $end
$var parameter 32 9! i $end
$upscope $end
$scope begin stage[7] $end
$var parameter 32 :! i $end
$upscope $end
$scope begin stage[6] $end
$var parameter 32 ;! i $end
$upscope $end
$scope begin stage[5] $end
$var parameter 32 <! i $end
$upscope $end
$scope begin stage[4] $end
$var parameter 32 =! i $end
$upscope $end
$scope begin stage[3] $end
$var parameter 32 >! i $end
$upscope $end
$scope begin stage[2] $end
$var parameter 32 ?! i $end
$upscope $end
$scope begin stage[1] $end
$var parameter 32 @! i $end
$upscope $end
$scope begin stage[0] $end
$var parameter 32 A! i $end
$upscope $end
$upscope $end
$upscope $end
$enddefinitions $end
#0
$dumpvars
b11010100100100 !
b101111010000001 "
1#
b1001001110100110 5
b11010100100100 :
b101111010000001 ;
1<
0=
b0 A!
b1 @!
b10 ?!
b11 >!
b100 =!
b101 <!
b110 ;!
b111 :!
b1000 9!
b1001 8!
b1010 7!
b1011 6!
b1100 5!
b1101 4!
b1110 3!
b1111 2!
b0 6
b0 7
b0 8
b0 9
03
12
11
00
0/
1.
0-
1,
1+
1*
0)
0(
1'
0&
0%
1$
04
1n
0m
1l
0k
0j
1i
0h
1g
1f
1e
0d
1c
0b
1a
1`
0_
0~
0}
0|
0{
0z
0y
0x
0w
0v
0u
1t
0s
1r
0q
0p
0o
11!
10!
0/!
0.!
0-!
0,!
0+!
0*!
0)!
0(!
0'!
1&!
1%!
1$!
1#!
1"!
0!!
1^
1]
0\
0[
0Z
0Y
0X
0W
1V
0U
1T
1S
1R
1Q
0P
1O
0N
0M
0L
1K
0J
0I
1H
0G
0F
1E
0D
1C
0B
1A
1@
0?
0>
$end
#1000
b1 8
b1 6
b1 9
b101011001100011 :
b111101100001101 ;
b101011001100011 !
b111101100001101 "
b1101000101110001 5
1[
1Z
0V
1U
0S
1P
1M
1L
0K
1G
0E
1D
0@
1?
1k
0g
0t
1d
1~
0n
1m
1h
1u
0e
1p
0`
10
0,
0&!
1)
13
1/!
02
1-
1'!
0*
1%
0%!
1(
1.!
01
1&!
0)
0'
1-!
00
1%!
0(
1/
1'
#2000
b10 8
b10 6
b10 9
b1000010001100101 :
b101001000010010 ;
b1000010001100101 !
b101001000010010 "
b1101011001111000 5
0]
1\
0[
0Z
1Y
0U
0R
0P
0L
1K
0D
0A
0?
1>
0~
1n
0k
1j
0f
0c
0a
0u
1e
0r
1b
0p
1`
1_
03
0-!
10
1,!
0/
0+
0%!
1(
0#!
1&
0'!
1*
0'
0%
1!!
0$
0,!
1/
1+!
0.
0$!
1'
0"!
1%
0&!
1)
14
0+!
1.
1*!
0-
0&
0!!
1$
0(
0*!
1-
1,
04
0,
#3000
b11 8
b11 6
b11 9
b1100110100001101 :
b1111000101110110 ;
b1100110100001101 !
b1111000101110110 "
b11011111010000100 5
1[
1X
1W
1U
0T
1P
1N
1J
0H
0G
1E
1B
1?
1|
0l
1v
0e
1a
1o
0_
1k
1c
1p
0`
11
1(!
0*
1&
1!!
0$
1-!
00
1(
1"!
0%
1*
14
1,!
0/
1$
1+!
0.
1*!
0-
1,
#4000
b100 8
b100 6
b100 9
b101011111101101 :
b1111011110001100 ;
b101011111101101 !
b1111011110001100 "
b10100111101111010 5
0\
1Z
0Y
0X
0W
1V
1T
1S
1H
1G
1F
1D
0B
1A
0>
0m
1{
0k
0j
1w
1u
1t
0d
0c
1r
0b
0o
1_
0/!
12
10
0,!
1/
1)!
1'!
1&!
0)
0(
1$!
0'
0$
01
0+!
1.
1+
1)
1(
1#!
0&
0*!
1-
1%
0,
#5000
b101 8
b101 6
b101 9
b10010011000110 :
b1000010011000101 ;
0<
b10010011000110 !
b1000010011000101 "
0#
b1010100110001011 5
1]
0Z
1W
0U
0T
0Q
0P
0O
0M
1L
0J
0H
0E
0D
0A
1@
0?
0^
0{
1x
0h
0v
0u
0r
0p
1m
0i
01!
0-!
1*!
0-
0(!
0'!
0$!
0"!
1/!
02
0.
00!
13
0/
1,
0*
0)
0#!
1&
0!!
1$
11
0/!
12
0%
04
01
#6000
b110 8
b110 6
b110 9
b1111011111100101 :
b111001001110111 ;
b1111011111100101 !
b111001001110111 "
b10110101001011100 5
1\
1Y
1X
0V
1T
0S
1Q
1P
1O
0N
1M
0L
1H
1E
1D
1A
1?
1>
1j
1y
0w
1g
1u
0t
1d
1r
1q
0a
1p
1~
0n
1f
1/
1+!
0,
1'!
0&!
1)
1$!
1#!
0&
1"!
10!
03
1(!
0+
1-
1&!
0)
0(
1&
1%
1!!
0$
1/!
02
1*
1(
14
11
#7000
b111 8
b111 6
b111 9
b1101101110001111 :
b110100111110010 ;
b1101101110001111 !
b110100111110010 "
b10100010110000001 5
0]
0[
1V
1U
0T
1R
0Q
1L
1J
0H
0G
0C
1B
0@
0~
1n
0|
1l
1w
0g
1v
0f
0u
1e
1s
0r
1b
1}
0m
1k
0y
1i
0x
1h
0d
0q
1a
00!
13
01
1,
1+
0*
1%!
0$!
1'
12
1-!
00
0+!
1.
0-
0&!
1)
0&
02
1$!
0'
0#!
1&
1,!
0/
0*!
1-
0(
1#!
0&
0%
1+!
0.
0,
1%
1*!
0-
1,
#8000
b1000 8
b1000 6
b1000 9
b111101011101000 :
b100111011000101 ;
b111101011101000 !
b100111011000101 "
b1100100110101101 5
1]
0\
1[
0Y
0X
0U
1T
1S
0P
0M
0L
0K
1H
1G
0E
1@
0>
0}
0j
0v
1u
0e
1d
1x
0h
0_
0/!
0,!
1/
0(!
1*
1&!
0)
1-
0!!
1$
0.!
11
0+!
1.
0*
1(
04
0-!
10
0-
0/
#9000
b1001 8
b1001 6
b1001 9
b10100010111101 :
b101100000101101 ;
1<
b10100010111101 !
b101100000101101 "
1#
b1000000011101011 5
1Z
1X
0W
0V
0T
0S
1Q
1M
1K
1I
0G
0D
0A
0?
1^
1{
0k
1y
0i
0x
0w
1g
0u
0d
1~
0n
1|
0l
1j
0p
1`
11!
1-!
00
1+!
0.
0*!
0,
0'!
0&!
1)
10!
1.!
01
1/
0%
1,!
0/
1-
0)!
1,
0)
0(
12
10
1.
0+
#10000
b1010 8
b1010 6
b1010 9
b110001001100011 :
b1000011100001010 ;
0<
b110001001100011 !
b1000011100001010 "
0#
b1110100101101101 5
0]
1\
0[
0X
1U
1T
1S
0R
0Q
0O
1N
1L
0K
0J
0I
1G
0F
1D
0B
1?
0^
0~
1n
1}
0|
0y
1i
1f
1u
1d
0s
0b
1_
0{
1k
0j
1h
0g
01!
00!
1/!
0.!
0.
1+
1'!
1)
0%!
0$!
1'
1!!
0$
00
0,!
1/
1*!
0-
0,
02
11
0-!
10
1&!
0)
0'
0#!
1&
14
0+!
1.
1,
0/
1(
0"!
1%
0*!
1-
0!!
1$
0,
04
#11000
b1011 8
b1011 6
b1011 9
b10000100100000 :
b100010110101010 ;
1<
b10000100100000 !
b100010110101010 "
1#
b110011011001011 5
1X
1V
0T
1O
0N
0M
0L
0G
1E
0D
0?
1^
1y
0i
1g
0u
0_
0n
0}
1m
0h
1v
0f
11!
1+!
0.
1,
0'!
0$
0/!
12
0-
1(!
0+
1-
0&!
1)
01
1*
0(
#12000
b1100 8
b1100 6
b1100 9
b11111010010110 :
b1011100000010011 ;
b11111010010110 !
b1011100000010011 "
b1111011010101010 5
1]
0Z
1Y
0X
0V
0U
0S
1R
1Q
1P
0O
1N
1L
1K
1I
0H
1F
0E
1D
1C
1B
1A
1n
0k
1z
0y
0v
1s
1r
1q
0a
0`
1_
1}
0m
1l
1e
10!
03
00
1,!
0+!
0(!
1%!
1$!
1#!
0&
0%
1$
1/!
02
11
1'!
0*
12
1.
0-
0'!
1*
1'
1&
1%
1.!
01
1&!
0)
0&!
1)
10
1(
0(
#13000
b1101 8
b1101 6
b1101 9
b1101011001010011 :
b1101110101101011 ;
b1101011001010011 !
b1101110101101011 "
b11011001110111111 5
1Z
0Y
1X
1W
1U
1S
0P
1O
1M
0K
1G
0F
0B
0@
1?
1>
1k
0z
1j
1i
1x
1f
1t
0d
0q
1p
1~
0n
0l
0g
0s
1c
1o
0_
1-!
00
0,!
1/
1+!
0.
1*!
1+
1&!
0)
0#!
1"!
13
0.!
11
0,
0%!
1(
1!!
0$
1,!
0/
0+!
1.
1-
1,
1%!
0(
0%
1$
0-!
10
0'
14
1+!
0.
0-
1'
0,!
1/
1-
0+!
1.
0-
#14000
b1110 8
b1110 6
b1110 9
b100101000000010 :
b11111010101110 ;
b100101000000010 !
b11111010101110 "
b1000100010110001 5
0]
1[
0W
1V
0U
1T
1P
0O
0N
0M
0I
0G
0C
1B
0A
0>
0~
1l
0x
1g
0f
1u
0e
1a
0p
1`
0o
0j
0t
1d
1s
0c
0r
1b
00!
1.!
01
0*!
1)!
0,
0+
1'!
0*
1#!
0&
0"!
1%
0!!
0/
0&!
1)
1(
0'
02
1-!
00
0)!
1,
1+
1&!
0)
1"!
0%
0$
04
0(
1/
0+
1(
1$
#15000
b1111 8
b1111 6
b1111 9
b111001011001111 :
b100100100100011 ;
0<
b111001011001111 !
b100100100100011 "
0#
b1011101111110010 5
1]
0[
0Z
0V
1U
0T
0S
0Q
0P
1O
1M
1K
1J
1G
1F
0B
1A
1@
0^
1~
1f
0u
1e
0d
1p
0`
1h
0s
1c
01!
10!
1+
0'!
1*
0&!
1)
1%
1-
0(
03
12
0)
0%!
1(
0$!
1'
0#!
1&
0%
#16000
b10000 8
b10000 6
b10000 9
b101011001010 :
b100110000111100 ;
b101011001010 !
b100110000111100 "
b101011100000110 5
0]
0\
1[
1Z
1Y
0U
1S
0M
0K
1B
0A
0@
0?
0~
0}
1m
1{
0k
1j
0f
1d
1s
0c
0b
0a
0p
1`
00!
02
10
1,!
0/
0+
1)
1%!
0(
0'
0&
0"!
1%
0/!
12
1+!
0.
1'
0$
0.!
11
1*!
0-
00
1)!
0,
1+
#17000
b10001 8
b10001 6
b10001 9
b110000110001010 :
b1011001101000001 ;
b110000110001010 !
b1011001101000001 "
b10001010011001011 5
1]
0[
0Z
0Y
0X
1W
1U
1T
0S
0R
1Q
1P
0O
1N
0G
1E
0D
0B
1@
1?
1n
0l
0{
1k
0j
0i
1v
0d
0s
1b
1q
1_
13
01
0-!
10
0,!
1/
0+!
1.
1(!
0)
0%!
1$!
0'
1#!
1$
0/
0.
0*!
1-
1'!
0*
0$!
1'
1&
1"!
0%
0)!
1,
1)
0&
1!!
0$
0+
14
#18000
b10010 8
b10010 6
b10010 9
b1111001101111000 :
b1001010001001 ;
1<
b1111001101111000 !
b1001010001001 "
1#
b10000011000000010 5
1Z
0W
1V
0U
0P
0N
0L
1I
1H
1G
0F
1D
1A
1>
1^
1{
0k
0v
1f
0q
1a
0m
1j
1i
1u
0e
1r
0b
11!
1-!
00
0(!
1+
0#!
1&
02
1/
1.
1*
1$!
0'
10!
03
1,!
0/
0*
0"!
1%
1#!
0&
12
1+!
0.
0!!
1$
1"!
0%
1*!
0-
04
1!!
0$
1)!
0,
14
1(!
0+
1*
#19000
b10011 8
b10011 6
b10011 9
b110010110110110 :
b1111100111000110 ;
0<
b110010110110110 !
b1111100111000110 "
0#
b10101111101111100 5
0]
1\
1[
0Z
1W
1U
0T
1R
1P
1O
1N
1L
1K
0J
0G
1F
0D
1C
0A
0>
0^
0n
1}
1|
0{
1v
0f
0u
1c
1q
0a
1p
0`
1w
0g
1d
0r
1b
01!
00!
1/!
1.!
0-!
1+
0'!
1(
1&
1%
1,
1&!
0)
0$!
1'
02
11
10
0,!
1/
0&!
1)
1%!
0(
0&
0+!
1.
0%!
1(
1$!
0'
0*!
1-
0$!
1'
1&
0,
0&
#20000
b10100 8
b10100 6
b10100 9
b1010111100 :
b1101110100101010 ;
1<
b1010111100 !
b1101110100101010 "
1#
b1101111111100111 5
0[
1Z
1X
0W
0V
1S
0P
0L
1J
0E
1D
0C
0@
0?
1^
0|
1l
1{
1y
0i
0h
0w
1g
0q
0}
1m
0v
1f
1e
0p
1`
11!
01
1-!
1+!
0.
0-
0)!
1,
0#!
0/!
12
0+
1'!
0*
0%
13
1,!
0/
1-
0(!
1+
0"!
1%
0.!
11
1&!
0)
1.
0'!
1*
0!!
1$
00
1%!
0(
0&!
1)
04
1$!
0'
0%!
1(
1&
0$!
1'
0&
#21000
b10101 8
b10101 6
b10101 9
b1011111001110001 :
b100000110000101 ;
b1011111001110001 !
b100000110000101 "
b1111111111110111 5
1]
0\
1[
0Z
0X
1V
0S
0R
0Q
0N
1M
0K
0J
1G
0F
1C
1B
1A
1@
1>
1~
0m
0{
0y
1i
1h
1a
10!
02
0-!
0.
1*!
0-
1&
12
0,!
1/
1)!
0,
0+!
1.
1(!
0+
0*!
1-
1'!
0*
0)!
1,
1&!
0)
0(!
1+
1%!
0(
0'!
1*
1$!
0'
0&!
1)
1#!
0&
0%!
1(
1"!
0%
0$!
1'
1!!
0$
0#!
1&
14
0"!
1%
0!!
1$
04
#22000
b10110 8
b10110 6
b10110 9
b110000000111011 :
b11001100111010 ;
0<
b110000000111011 !
b11001100111010 "
0#
b1001001101110101 5
0]
1\
0[
1Z
1Y
1X
0V
1T
1Q
1P
0O
1L
1J
0G
0D
0C
0B
0A
1?
0>
0^
0~
1n
1}
0l
1{
1z
0j
1y
0i
0g
1q
0a
0h
0d
0c
0_
01!
00!
1/!
01
1-!
1,!
0/
1+!
0.
0,
1#!
0&
0-
0)
0(
0$
02
11
1/
1.
1-
1"!
0%
1$
#23000
b10111 8
b10111 6
b10111 9
b100101100010101 :
b1001101111110001 ;
1<
b100101100010101 !
b1001101111110001 "
1#
b1110011100000111 5
1]
0\
0Z
1W
1V
1R
0P
1N
0L
1K
0J
0H
1E
1D
1B
0@
1^
1~
0n
0}
0{
1h
1g
1s
0q
1_
1l
0y
1i
1v
0f
1u
0e
11!
10!
0/!
0-!
1*!
0-
1,
1%!
0#!
1!!
0$
1.!
01
0.
1(!
0+
1'!
0*
12
0.!
11
0/
1)!
0,
1$!
0'
0"!
1%
14
10
1*
1)
00
1+
1&
0!!
1$
04
#24000
b11000 8
b11000 6
b11000 9
b11101100010 :
b1111101101001100 ;
b11101100010 !
b1111101101001100 "
b10000001010101111 5
0]
1[
1Z
0Y
0X
0V
1P
1O
0M
1L
0K
0I
1H
1G
1C
0B
0?
0~
1k
0z
0g
1a
1m
1x
0h
1d
0s
1c
00!
10
0,!
0)!
1,
1#!
0&
1/!
02
1-
1&!
0)
0%!
1(
0/!
12
0+!
1.
0+
1"!
0%
1.!
01
1%!
0(
0$!
1'
0.!
11
0-
1!!
0$
1-!
00
1$!
0'
0#!
1&
0-!
10
14
1/
1#!
0&
0"!
1%
0/
1"!
0%
0!!
1$
1!!
0$
04
14
#25000
b11001 8
b11001 6
b11001 9
b1010000110001111 :
b1010100111111000 ;
b1010000110001111 !
b1010100111111000 "
b10100101110001000 5
0[
1Y
1X
1V
0T
0Q
0O
1M
1K
1J
0H
0G
1F
0D
0C
1@
1>
1j
1w
0u
0b
0`
1n
1{
0k
0x
1h
0d
1q
0a
1o
0_
1/
1)!
0'!
0$!
1'
0"!
1%
10!
03
1-!
00
0*!
1-
0&!
1)
1&
1$
1+
0)
0&
0$
1/!
02
1,!
0/
0,
0%!
1(
1.!
01
1+!
0.
0'
10
1*!
0-
1,
#26000
b11010 8
b11010 6
b11010 9
b101011010011111 :
b1001010001011100 ;
b101011010011111 !
b1001010001011100 "
b1110101011111100 5
1[
0X
0V
0U
1S
0R
1Q
0P
1I
0E
1D
1C
1A
0@
1?
0>
1|
0l
0i
0w
1g
0v
1t
0c
1r
0q
1z
0j
1e
1`
0o
1_
11
0+!
1.
0,
0(!
1&!
0(
1$!
0#!
1/
1'!
0*
1"!
0%
0!!
1$
0*!
1-
0'!
1*
1(
1&
0"!
1%
1)
1!!
0$
04
0)!
1,
0)
0!!
1$
14
0+
04
#27000
b11011 8
b11011 6
b11011 9
b11011110001001 :
b11001001001001 ;
0<
b11011110001001 !
b11001001001001 "
0#
b110100111010010 5
1]
0[
0Y
1T
0S
1P
0N
0L
0K
0I
1E
1@
0?
0^
1~
0n
0|
0z
1u
0e
0t
1d
1q
0_
0m
1f
0`
01!
0.!
0,!
1'!
0*
0&!
1)
1#!
0$
0/!
12
1+
0%
00
0.
1&!
0)
0(
1%
01
1(
#28000
b11100 8
b11100 6
b11100 9
b1100000011010111 :
b1111110001010001 ;
b1100000011010111 !
b1111110001010001 "
b11011110100101000 5
0Z
1Y
0T
1S
1R
1O
1N
1L
1K
0J
1I
1G
0E
0D
0C
0A
0@
1?
1>
0{
1z
0u
1c
1p
1o
1m
1l
1x
0h
0f
0r
1b
0q
1a
0-!
1,!
0'!
1%!
0(
1"!
1!!
1/!
02
11
1*!
0-
0+
0$!
1'
0&
0/
1.
0&!
1)
1$!
0'
1$
14
1.!
01
1)!
0,
0#!
1&
0%!
1(
1#!
0&
10
1+
0%
0$!
1'
1%
0#!
1&
0%
#29000
b11101 8
b11101 6
b11101 9
b111111100001100 :
b1100111011000010 ;
b111111100001100 !
b1100111011000010 "
b10100110111001110 5
0]
1\
0Y
1V
1T
0Q
0P
0M
0L
1J
0I
0G
0F
1E
1D
1C
1B
1A
1@
0>
0~
0z
1u
1k
0x
1h
1f
1t
0d
1s
0c
0o
1_
00!
0,!
1'!
1-!
00
0*!
1-
1(!
0+
1&!
0)
1%!
0(
0$
0/!
12
0.
1)
1/
0)!
1,
1*
1(
1$!
0'
0.!
11
0(!
1+
1#!
0&
0-!
10
0*
1%
0/
#30000
b11110 8
b11110 6
b11110 9
b101101001110111 :
b1110110100111101 ;
b101101001110111 !
b1110110100111101 "
b10100011110110100 5
1]
0\
1[
1Z
1Y
1X
0W
0V
1U
0T
1P
1M
1L
0J
1I
1H
1G
0E
0C
0@
1~
1|
0l
1z
1y
0g
0u
1e
0t
1d
10!
1.!
01
1,!
1+!
0,
0'!
1*
0)
1/!
02
1-!
00
1.
1*!
0-
0&!
1)
11
1/
1,
0(
#31000
b11111 8
b11111 6
b11111 9
b1111110 :
b1000000101101101 ;
1<
b1111110 !
b1000000101101101 "
1#
b1000000111101100 5
0Y
1W
0S
0R
0P
0O
0M
1J
0D
0B
0A
0?
1^
0z
1j
1x
0h
0d
0s
0a
0p
0~
1n
1{
0k
0e
0b
11!
0/
1-
0)
0%!
0#!
1&
0"!
10
0*
0$!
1'
0'
0%
0!!
1$
0&
04
#32000
b100000 8
b100000 6
b100000 9
b1000111100011111 :
b1111011011010011 ;
b1000111100011111 !
b1111011011010011 "
b11000010111110011 5
1\
0[
0Z
1Y
0X
1V
0U
1T
1S
1Q
1P
1O
1M
0H
0G
1E
1D
1C
1B
1>
1}
0m
0|
1l
0{
1k
1z
0j
0y
1g
1u
1t
1b
1a
1`
1~
0n
0x
1h
1c
1o
0_
12
01
00
1/
0+!
1)!
0,
1'!
1&!
1'
1&
1%
13
0-
1(
1!!
0$
0*!
1-
1(!
0+
1)
1%!
0(
14
0)!
1,
1*
1$!
0'
0(!
1+
1#!
0&
0*
1"!
0%
1$
#33000
b100001 8
b100001 6
b100001 9
b1000100001111000 :
b101100101011011 ;
b1000100001111000 !
b101100101011011 "
b1110000111010100 5
1Z
0V
1U
0T
0S
1R
0P
0N
0M
0L
0K
1H
1G
0E
0D
0C
1{
0k
0g
0u
0t
1s
0c
0a
0o
1_
0~
1n
0}
1m
0l
1i
1x
0h
10
0,
0'!
0&!
1(
0#!
1&
0$
03
02
0.!
11
1+!
0.
1*!
0-
0)
0(
0"!
1%
00
1-
1,
0!!
1$
04
#34000
b100010 8
b100010 6
b100010 9
b1010111000111111 :
b1010111100101010 ;
0<
b1010111000111111 !
b1010111100101010 "
0#
b10101110101101001 5
0]
0Y
1X
0W
1T
1S
0Q
1P
0O
1N
1M
1L
1K
0G
1D
1C
1@
0^
0z
1j
1y
0i
0x
1u
1t
0b
1q
0`
1o
0_
1}
0m
1l
01!
0/
1.
0*!
1'!
1&!
0$!
1'
1#!
0%
1!!
0$
12
1.!
01
00!
13
0,
1)
1(
0&
1%
14
10
02
#35000
b100011 8
b100011 6
b100011 9
b11100010000110 :
b110010001110 ;
b11100010000110 !
b110010001110 "
b100010100010100 5
1[
0X
1V
0U
0T
0P
0N
0M
0J
0I
0H
1F
0D
0C
1A
0>
1|
0l
0y
1w
0f
0u
0q
1a
0o
0n
0{
1k
0j
0t
1d
1b
11
0+!
1)!
0+
0'!
0#!
1&
0!!
03
00
0,!
1/
0)
1$!
0'
0-
1+
0&!
1)
0%
04
0.
1#!
0&
0(
1%
#36000
b100100 8
b100100 6
b100100 9
b1001100111111010 :
b1011110000100110 ;
1<
b1001100111111010 !
b1011110000100110 "
1#
b10101011000100001 5
0Z
1X
0V
1Q
1P
1N
0K
1J
1I
1H
1G
1E
0@
1>
1^
1y
0w
1g
1r
0b
1o
0|
1l
1j
1h
1f
11!
1+!
0)!
1,
1'
1!!
01
1,!
0/
1-
1(!
0+
13
1*!
0-
0(!
1+
14
1.
1*
1)!
0,
0*
1(!
0+
1*
#37000
b100101 8
b100101 6
b100101 9
b1011010010100011 :
b1010100000101111 ;
b1011010010100011 !
b1010100000101111 "
b10101110011010011 5
1]
1Z
0S
0Q
1M
0J
0I
0G
0E
1C
0B
1@
1~
0r
1b
0j
0h
0f
0s
1c
1q
0a
10!
0'
0,!
1/
0*!
1-
0(!
1+
0%!
1(
1&
12
0.
0)!
1,
0*
0$!
1'
0+
0&
#38000
b100110 8
b100110 6
b100110 9
b101011001011111 :
b110101000100 ;
b101011001011111 !
b110101000100 "
b110001110100100 5
0]
0\
0Z
0X
1W
1U
1S
0P
0N
1K
1J
1I
0H
1G
0F
1D
0@
1?
0>
0~
1n
0}
1m
0y
1x
1f
1t
0d
0q
0o
1|
0l
1j
0g
1e
1`
03
02
0+!
1*!
1+
1&!
0)
0#!
0!!
11
1,!
0/
0,
1*
1"!
0%
0-
1,
1%!
0(
0"!
1%
04
1.
1$
1$!
0'
0$
1&
#39000
b100111 8
b100111 6
b100111 9
b11011011001011 :
b1101011100110 ;
0<
b11011011001011 !
b1101011100110 "
0#
b101000110110001 5
1\
1X
1V
0U
1T
0S
1Q
0K
0I
1F
1@
0?
0^
1}
0m
1i
1w
0f
1u
0e
0t
1d
1r
0b
0|
1l
0j
1a
0`
01!
12
1+!
0.
1)!
0+
1'!
0*
0&!
1)
1'
01
0,!
1/
1#!
0&
0%
00!
13
1-
1+
1&!
0)
0%!
1(
0+!
1.
1%
02
1%!
0(
0'
0-
1'
#40000
b101000 8
b101000 6
b101000 9
b1100000100101001 :
b1110001011101101 ;
b1100000100101001 !
b1110001011101101 "
b11010010000010110 5
1]
0\
1Z
0R
0Q
1P
1O
1N
0L
1H
0G
0F
1E
0D
0C
0A
0@
1?
1>
1~
0n
0}
1{
0k
0c
0r
1p
1o
1y
0i
0x
1h
0w
1g
1f
0u
1e
0d
10!
03
0/!
10
0%!
1(
0$!
1"!
1!!
1+!
0.
0*!
1-
0,
1(!
0+
0'!
1*
0&!
1)
12
0.!
11
0'
0#!
1&
1$
14
1*!
0-
0)!
1,
1'!
0*
0)
0(
00
0%
1)!
0,
0(!
1+
1)
1(!
0+
0'!
1*
1'!
0*
0)
1)
#41000
b101001 8
b101001 6
b101001 9
b1011011001100101 :
b1110001010110101 ;
1<
b1011011001100101 !
b1110001010110101 "
1#
b11001100100011011 5
0Z
1Y
0W
1K
0J
1G
0E
1D
1C
1A
1@
0?
1^
0{
1j
1|
0l
0f
1u
0e
1d
1b
1q
0a
0p
1`
11!
0-!
1,!
0/
1.!
01
0(!
1+
1*
1&!
0)
1'
1#!
0&
0"!
1%
13
0,!
1/
1.
10
0*
1(
1"!
0%
0$
0.
1$
#42000
b101010 8
b101010 6
b101010 9
b1100101111001 :
b1111111101000100 ;
0<
b1100101111001 !
b1111111101000100 "
0#
b10001100010111101 5
0]
0Y
0X
1W
0V
1U
1S
1R
1Q
0K
1J
1I
1E
0D
0C
1B
0@
0>
0^
0~
1n
0y
1i
1x
0h
0g
1v
1s
1r
0b
0|
1l
1k
0u
1e
0q
1a
0o
1_
01!
00!
0+!
1.
1-
0)!
1,
1(!
1%!
1$!
0'
0.!
11
1-!
00
0'!
1*
0#!
1&
0$
02
0-
0+
1'!
0*
1'
1#!
0&
0-!
10
1,!
0/
0&!
1)
0"!
1%
1&!
0)
1"!
0%
0,!
1/
1+!
0.
0(
0!!
1$
1(
1!!
0$
0+!
1.
1-
04
14
0-
#43000
b101011 8
b101011 6
b101011 9
b101100101010 :
b1010110110101011 ;
b101100101010 !
b1010110110101011 "
b1011100011010101 5
1]
1\
0[
1Z
1X
0W
1V
0T
0Q
0O
0M
1L
0I
0G
1D
0A
1}
0l
1{
0k
1y
0i
0x
1g
0r
0`
0j
1/!
01
1-!
00
1+!
0.
0*!
1)!
0,
0$!
0"!
1%
0/
11
1/
1-
0)!
1,
1+
0#!
1&
0!!
1$
0+
0%
04
